{"items": [{"metadata": ["\u0160ifra oglasa=K7-49019", "Tip=Stan", "Grejanje=Centralno", "Broj soba=2"], "location": ["Novi Sad", "Liman 4 - BALZAKOVA"], "area": 57, "processed": true, "timestamp": 1522713600, "images": ["http://www.nadjidom.com/images/photos/large/2018/04/05/-k7-49019-image-2005.png", "http://www.nadjidom.com/images/photos/large/2018/04/05/-k7-49019-image-2006.png", "http://www.nadjidom.com/images/photos/large/2018/04/05/-k7-49019-image-2007-0.png", "http://www.nadjidom.com/images/photos/large/2018/04/05/-k7-49019-image-2001.png", "http://www.nadjidom.com/images/photos/large/2018/04/05/-k7-49019-image-2002.png", "http://www.nadjidom.com/images/photos/large/2018/04/05/-k7-49019-image-2003.png", "http://www.nadjidom.com/images/photos/large/2018/04/05/-k7-49019-image-2004.png"], "text": "Stan, BALZAKOVA, 61800 EUR", "link": "http://www.nadjidom.com/sr/details/465023/Novi+Sad-Liman+4-Prodaja-Stan.html", "advertiser": {"name": "KLJU\u010c NEKRETNINE", "phones": ["021524601", "0605246010", "0605246011"]}, "price": 61800, "title_hash": "27e95b4eac726e83eefa5ebc83ffdf4c1dcc9246", "title": "Stan, BALZAKOVA, 61800 EUR"}, {"metadata": ["ID=1635137", "Objavljen=02.04.2018.", "Oglas od=Zastupnik", "Uknji\u017eeno=Da"], "location": ["Liman 3"], "similar_adverts": [{"title": "ODLICAN STAN KOD STRANDA ! TREBA DA SE SREDI ! ", "link": "https://www.nekretnine.rs/stambeni-objekti/stanovi/1635137/odlican-stan-kod-stranda-treba-da-se-sredi/?cat=prodaja"}, {"title": "Odli\u010dan, cena dogovor! 021/544-624", "link": "https://www.oglasi.rs/oglasi/nekretnine/prodaja/stanova/02-312840/odlican-cena-dogovor-021-544-624"}], "processed": true, "timestamp": 1522627200, "text": "Dvoiposoban stan na Limanu, uknji\u017een odmah useljiv. U zgradi biciklana. Jako povoljan!!!! Sonja kontakt", "area": 50, "images": ["https://www.nekretnine.rs/data/images/2018/04/02/420089T1522672891_540c.jpg"], "link": "https://www.nekretnine.rs/stambeni-objekti/stanovi/1635137/odlican-stan-kod-stranda-treba-da-se-sredi/?cat=prodaja", "advertiser": {"name": " City Nekretnine Jevrejska 1221000 Novi Sad", "phones": ["0216622127", "0216613213", "0648222130", "0648222129"]}, "price": 51500, "title_hash": "4d46b38df298e4205e6ecc8677b6cc1597c25b6d", "title": "ODLICAN STAN KOD STRANDA ! TREBA DA SE SREDI ! "}, {"metadata": ["\u0160ifra oglasa=404059", "Tip=Stan", "Grejanje=Centralno", "Broj soba=2"], "location": ["Novi Sad", "Liman 3"], "area": 57, "processed": true, "timestamp": 1522627200, "images": ["http://www.nadjidom.com/images/photos/large/2017/10/02/36nshftmkw-dscf8338-smanjena-.jpg", "http://www.nadjidom.com/images/photos/large/2017/10/02/rkkh8yhqw2-dscf8331-smanjena-.jpg", "http://www.nadjidom.com/images/photos/large/2017/10/02/xis86mynq9-dscf8333-smanjena-.jpg", "http://www.nadjidom.com/images/photos/large/2017/10/02/5g5v7rgv35-dscf8334-smanjena-.jpg", "http://www.nadjidom.com/images/photos/large/2017/10/02/z3ijbvx65n-dscf8335-smanjena-.jpg", "http://www.nadjidom.com/images/photos/large/2017/10/02/wa5q1pney5-dscf8336-smanjena-.jpg", "http://www.nadjidom.com/images/photos/large/2017/10/02/y6gibjueqa-dscf8337-smanjena-.jpg", "http://www.nadjidom.com/images/photos/large/2017/10/02/ipsq8mdynq-dscf8339-smanjena-.jpg", "http://www.nadjidom.com/images/photos/large/2017/10/02/4233tis85g-dscf8340-smanjena-.jpg", "http://www.nadjidom.com/images/photos/large/2017/10/02/8z9infudw1-dscf8341-smanjena-.jpg"], "text": "\u0160ifra: 1033088... NOVI SAD, LIMAN 3, DVOSOBAN STAN, 57 M2... Iz ponude izdvajamo dvosoban stan od 57 m2 na Limanu 3. Nekretnina je renovirana - promenjene sve instalacije, keramika u kupatilu i kuhinji, PVC prozori u spava\u0107oj sobi i kuhinji sa trpezarijom. Prvobitna stolarija je jedino ostala u dnevnom boravku koji ima izlaz na terasu. Stan je sme\u0161ten na jedanaestom spratu zgrade sa dva lifta i ukupno \u0161esnaest eta\u017ea. Orijentacija stana ka Dunavu i Tvr\u0111avi - ISTOK. Dokumentacija stana uredna i mogu\u0107a je kupovina putem kredita. Pozovite... KONTAKT: Gabriela Orosi, licenca br. 1538, mob. tel. 063/724-11-77; (Solis nekretnine, Novi Sad, upisan u Registar posrednika br. 544, tel: 021/520-231)", "link": "http://www.nadjidom.com/sr/details/404059/Novi+Sad-Liman+3-Prodaja-Stan.html", "advertiser": {"name": "SOLIS NEKRETNINE", "phones": ["021520231", "021427277", "021451570", "0605565333", "0605202311"]}, "price": 59800, "title_hash": "5c2670dd45c4df6d8daa9e29eea36b951c575258", "title": "NOVI SAD, LIMAN 3, DVOSOBAN STAN, 57 M2"}, {"metadata": ["\u0160ifra oglasa=464140", "Tip=Stan", "Grejanje=Centralno", "Broj soba=2.5", "Broj kupatila=1", ["Dodatne informacije=Terasa, Parking, Internet, Kablovska, Lift, Uknji\u017eeno, Telefon, Interfon"]], "location": ["Novi Sad", "Liman 4"], "area": 55, "processed": true, "timestamp": 1522454400, "images": ["http://www.nadjidom.com/images/photos/large/2018/03/31/mdbjh9e34u-1515656849.jpg", "http://www.nadjidom.com/images/photos/large/2018/03/31/qt36vjfzu9-1515656880.jpg", "http://www.nadjidom.com/images/photos/large/2018/03/31/a5569hydb5-1515664255.jpg", "http://www.nadjidom.com/images/photos/large/2018/03/31/1zd2uthbxu-1515664290.jpg", "http://www.nadjidom.com/images/photos/large/2018/03/31/28fzcw4877-1515664324.jpg", "http://www.nadjidom.com/images/photos/large/2018/03/31/jujyybj7ek-1515664353.jpg", "http://www.nadjidom.com/images/photos/large/2018/03/31/22qfw1fk4f-1515664381.jpg", "http://www.nadjidom.com/images/photos/large/2018/03/31/hvr86s1jnd-1515664419.jpg", "http://www.nadjidom.com/images/photos/large/2018/03/31/qec2rzyrfp-1515664448.jpg", "http://www.nadjidom.com/images/photos/large/2018/03/31/37iddcggu1-1515664509.jpg", "http://www.nadjidom.com/images/photos/large/2018/03/31/m9pvu47f8v-1515679199.jpg"], "text": "Kontakt : 0600283253 Dalibor", "link": "http://www.nadjidom.com/sr/details/464140/Novi+Sad-Liman+4-Prodaja-Stan.html", "advertiser": {"name": "\u0110OR\u0110EVI\u0106 Nekretnine", "phones": ["0216611000", "021426010", "021426800", "0658118018", "064 649 88 66"]}, "price": 67980, "title_hash": "903fcd58e9bae0807e98cf7fb24cf13e26ccb921", "title": "Odli\u010dan dvoiposoban stan, Liman 4!! 0600283253"}, {"metadata": ["ID=1623109", "Objavljen=27.03.2018.", "Oglas od=Zastupnik", "Sobe=2", "Na spratu=7", "Ukupno Spratova=7"], "location": ["Liman 3"], "similar_adverts": [{"title": "Novi Sad, Liman, potkrovlje, dvosoban stan", "link": "https://www.oglasi.rs/oglasi/nekretnine/prodaja/stanova/03-418818/novi-sad-liman-potkrovlje-dvosoban-stan"}, {"title": "Novi Sad, Liman, odli\u010dan dvosoban stan", "link": "http://www.nadjidom.com/sr/details/464907/Novi+Sad-Liman+3-Prodaja-Stan.html"}, {"title": "Stan na odlicnoj lokaciji!", "link": "https://www.nekretnine.rs/stambeni-objekti/stanovi/1623109/stan-na-odlicnoj-lokaciji/?cat=prodaja"}], "processed": true, "timestamp": 1522108800, "text": "Odli\u010dna stan na odli\u010dnoj lokaciji! Sa prelepim pogledom na grad. Idealan za zivot! Odli\u010dna izolacija, velux krovni prozori, pvc stolarija, sigurnosna ulazna vrata! Veoma svetao stan! Na\u0161a preporuka. Pozovite nas Sifra: 428669 Kontakt Spens nekretnine", "area": 55, "images": ["https://www.nekretnine.rs/data/images/2018/03/27/305681521899247image15T1522135746_540c.jpg", "https://www.nekretnine.rs/data/images/2018/03/27/305681521899247image14T1522135744_540c.jpg", "https://www.nekretnine.rs/data/images/2018/03/27/305681521899247image13T1522135741_540c.jpg", "https://www.nekretnine.rs/data/images/2018/03/27/305681521899246image10T1522135734_540c.jpg", "https://www.nekretnine.rs/data/images/2018/03/27/305681521899244image05T1522135730_540c.jpg", "https://www.nekretnine.rs/data/images/2018/03/27/305681521899245image08T1522135732_540c.jpg", "https://www.nekretnine.rs/data/images/2018/03/27/305681521899246image11T1522135736_540c.jpg", "https://www.nekretnine.rs/data/images/2018/03/27/305681521899246image12T1522135739_540c.jpg", "https://www.nekretnine.rs/data/images/2018/03/27/305681521899860image01T1522135748_540c.jpg", "https://www.nekretnine.rs/data/images/2018/03/27/305681521899860image02T1522135750_540c.jpg"], "link": "https://www.nekretnine.rs/stambeni-objekti/stanovi/1623109/stan-na-odlicnoj-lokaciji/?cat=prodaja", "advertiser": {"name": " Spens Nekretnine Sutjeska 221000 Novi Sad", "phones": ["0216620002", "0216620001", "0648033302", "0648033303"]}, "price": 61800, "title_hash": "caf3f529d69b16df4d328111d9a76764dbda6fba", "title": "Stan na odlicnoj lokaciji!"}, {"metadata": ["ID=1623627", "Objavljen=27.03.2018.", "Oglas od=Zastupnik", "Uknji\u017eeno=Da", "Sobe=3", "Kupatila=1", "Na spratu=10", "Ukupno Spratova=10"], "location": ["Liman 2"], "similar_adverts": [{"title": "Odlican stan na Top lokaciji!", "link": "https://www.nekretnine.rs/stambeni-objekti/stanovi/1651685/odlican-stan-na-top-lokaciji/?cat=prodaja"}, {"title": "uknjizen..", "link": "https://www.oglasi.rs/oglasi/nekretnine/prodaja/stanova/03-422668/uknjizen"}, {"title": "ODLI\u010cAN STAN!!!", "link": "http://www.nadjidom.com/sr/details/427036/Novi+Sad-Liman+2-Prodaja-Stan.html"}, {"title": "trosoban", "link": "https://www.nekretnine.rs/stambeni-objekti/stanovi/1619578/trosoban/?cat=prodaja"}, {"title": "stan", "link": "https://www.nekretnine.rs/stambeni-objekti/stanovi/1623627/stan/?cat=prodaja"}], "processed": true, "timestamp": 1522108800, "text": "Nekretnina se nalazi na udarnoj lokaciji na Limanu 2, gde njegova orijentisanost govori najvi\u0161e o kvalitetu nekretnine. Ovaj stan se nalazi pored studentskog grada i idealan je za \u017eivot kako porodicama sa decom zbog blizine vrti\u0107a i osnovne \u0161kole koji se nalaze u istoj ulici tako i za starije osobe jer je na 100m najve\u0107i gradski park sa modernim \u0161etali\u0161tem. Ako \u017eivite na ovom mestu ni \u0161oping, akcije, popusti, banke ni megamarketi Vam nisu strani, jer je preko puta veliki tr\u017eni centar Mercator, a dijagonalno u izgradnji najve\u0107i tr\u017eni centar u Novom Sadu. Stan je pogodan za renoviranje prema potrebama, opremljen je starim ali funkcionalnim name\u0161tajem. Nezaboravan pogled na ceo grad sa jedne strane, a sa druge na planinu Fru\u0161ka Gora. Gradska pla\u017ea \"\u0160trand\" je na 100 metara i idealna je za vrele dane kada \u017eelite da se rashladite uz Dunav sa raznim sadr\u017eajem i prelepi novo sre\u0111eni kej sa modernim \u0161etali\u0161tem i d\u017eoging stazom. U dvori\u0161tu zgrade ima de\u010dije igrali\u0161te sa spravama i peskom, ko\u0161arka\u0161ki teren - drugim re\u010dima idealno za \u017eivot.", "area": 53, "images": ["https://www.nekretnine.rs/data/images/2018/03/27/288081513280101image01T1522144834_540c.jpg", "https://www.nekretnine.rs/data/images/2018/03/27/288081513280101image02T1522144836_540c.jpg", "https://www.nekretnine.rs/data/images/2018/03/27/288081513280102image05T1522144839_540c.jpg", "https://www.nekretnine.rs/data/images/2018/03/27/288081513280102image06T1522144842_540c.jpg", "https://www.nekretnine.rs/data/images/2018/03/27/288081513280102image07T1522144845_540c.jpg", "https://www.nekretnine.rs/data/images/2018/03/27/288081513280103image08T1522144846_540c.jpg", "https://www.nekretnine.rs/data/images/2018/03/27/288081513280103image09T1522144849_540c.jpg", "https://www.nekretnine.rs/data/images/2018/03/27/288081513280103image10T1522144852_540c.jpg", "https://www.nekretnine.rs/data/images/2018/03/27/288081513280103image11T1522144855_540c.jpg", "https://www.nekretnine.rs/data/images/2018/03/27/288081513280104image13T1522144857_540c.jpg"], "link": "https://www.nekretnine.rs/stambeni-objekti/stanovi/1623627/stan/?cat=prodaja", "advertiser": {"name": " 021 Nekretnine Maksima Gorkog 621000 Novi Sad", "phones": ["021529273", "021525591", "0648222125", "0648222126"]}, "price": 60050, "title_hash": "49dc290b3729c0cd34ee07947219cfa8f7ee52b0", "title": "stan"}, {"metadata": ["ID=1619543", "Objavljen=25.03.2018.", "Oglas od=Zastupnik", "Uknji\u017eeno=Da", "Sobe=3", "Kupatila=1", "Na spratu=5", "Ukupno Spratova=7"], "location": ["Liman 4"], "area": 69, "processed": true, "timestamp": 1522022400, "images": ["https://www.nekretnine.rs/data/images/2018/03/25/35647401T1521965654_540c.jpg", "https://www.nekretnine.rs/data/images/2018/03/25/35647405T1521965655_540c.jpg", "https://www.nekretnine.rs/data/images/2018/03/25/35647407T1521965657_540c.jpg", "https://www.nekretnine.rs/data/images/2018/03/25/35647409T1521965658_540c.jpg", "https://www.nekretnine.rs/data/images/2018/03/25/35647415T1521965659_540c.jpg", "https://www.nekretnine.rs/data/images/2018/03/25/35647417T1521965660_540c.jpg"], "text": "Zgrada od fasadne cigle, miran deo ulice, supermarketi i \u0161kola u blizini.Kontakt Win nekretnine 0216622700 0648222154", "link": "https://www.nekretnine.rs/stambeni-objekti/stanovi/1619543/dvoiposoban/?cat=prodaja", "advertiser": {"name": " Win Nekretnine Bulevar oslobo\u0111enja 7321000 Novi Sad", "phones": ["0648222154", "0216622700", "0648222155", "0216622770"]}, "price": 67520, "title_hash": "bd5f768ae06b549d3eecf3fc87670d32cbd686e5", "title": "dvoiposoban"}, {"metadata": ["ID=1613198", "Objavljen=21.03.2018.", "Oglas od=Zastupnik", "Uknji\u017eeno=Da", "Sobe=3", "Kupatila=1", "Na spratu=8", "Ukupno Spratova=8"], "location": ["Liman 3"], "similar_adverts": [{"title": "Klasi\u010dan limanski porodi\u010dni stan.", "link": "https://www.oglasi.rs/oglasi/nekretnine/prodaja/stanova/03-424675/klasican-limanski-porodicni-stan"}, {"title": "Novi Sad, Liman 3, ODLI\u010cAN, UKNJI\u017dEN, ODLI\u010cNA LOKACIJA!!!", "link": "https://www.oglasi.rs/oglasi/nekretnine/prodaja/stanova/02-205681/novi-sad-liman-3-odlican-uknjizen-odlicna-lokacija"}, {"title": "Klasi\u010dan limanski porodi\u010dni stan. Delimi\u010dno renoviran.065/66-48-306.", "link": "https://www.oglasi.rs/oglasi/nekretnine/prodaja/stanova/03-417659/klasican-limanski-porodicni-stan-delimicno-renoviran-065-66-48-306"}, {"title": "Novi Sad, Liman 3, PRELEP KRAJ, UKNJI\u017dEN STAN, ODLI\u010cNA LOKACIJA", "link": "https://www.nekretnine.rs/stambeni-objekti/stanovi/1613198/novi-sad-liman-3-prelep-kraj-uknjizen-stan-odlicna-lokacija/?cat=prodaja"}], "processed": true, "timestamp": 1521676800, "text": "Klasi\u010dan limanski porodi\u010dni stan. Delimi\u010dno renoviran. Funkcionalan raspored sa ve\u0107im dnevnim boravkom i dve manje spava\u0107e sobe. Ulaganja u keramiku i sanitarije i zamenu unutra\u0161nje i spolja\u0161nje stolarije. Ostala oprema bez ulaganja!", "area": 65, "images": ["https://www.nekretnine.rs/data/images/2018/03/21/1T1521659407_540c.jpg", "https://www.nekretnine.rs/data/images/2018/03/21/2T1521659410_540c.jpg", "https://www.nekretnine.rs/data/images/2018/03/21/3T1521659412_540c.jpg", "https://www.nekretnine.rs/data/images/2018/03/21/4T1521659413_540c.jpg", "https://www.nekretnine.rs/data/images/2018/03/21/5T1521659416_540c.jpg", "https://www.nekretnine.rs/data/images/2018/03/21/6T1521659417_540c.jpg", "https://www.nekretnine.rs/data/images/2018/03/21/7T1521659419_540c.jpg", "https://www.nekretnine.rs/data/images/2018/03/21/8T1521659420_540c.jpg", "https://www.nekretnine.rs/data/images/2018/03/21/9T1521659422_540c.jpg"], "link": "https://www.nekretnine.rs/stambeni-objekti/stanovi/1613198/novi-sad-liman-3-prelep-kraj-uknjizen-stan-odlicna-lokacija/?cat=prodaja", "advertiser": {"name": " Bulevar Nekrentine Bulevar Oslobo\u0111enja 10721000 Novi Sad", "phones": ["021458377", "021458665", "0648222152", "0648222153"]}, "price": 59740, "title_hash": "fc5d1614c15617bf7c58f9f76ce754154a86d08b", "title": "Novi Sad, Liman 3, PRELEP KRAJ, UKNJI\u017dEN STAN, ODLI\u010cNA LOKACIJA"}, {"metadata": ["ID=1612262", "Objavljen=21.03.2018.", "Oglas od=Zastupnik", "Uknji\u017eeno=Da", "Sobe=2", "Kupatila=1", "Na spratu=1", "Ukupno Spratova=16"], "location": ["Liman 3"], "similar_adverts": [{"title": "TOP LOKACIJA !!!", "link": "https://www.nekretnine.rs/stambeni-objekti/stanovi/1608176/top-lokacija/?cat=prodaja"}], "processed": true, "timestamp": 1521590400, "text": "TOP LOKACIJA na Limanu, uknji\u017een, prvi sprat blizina parka, \u0160tranda, \u0161kole, vrti\u0107a, fakulteta, gradskog prevoza, pijace, Merkatora. Mirna lokacija sa dosta zelenila i parking mesta.", "area": 58, "images": ["https://www.nekretnine.rs/data/images/2018/03/21/132T1521633393_540c.jpg", "https://www.nekretnine.rs/data/images/2018/03/21/133T1521633401_540c.jpg", "https://www.nekretnine.rs/data/images/2018/03/21/134T1521633408_540c.jpg", "https://www.nekretnine.rs/data/images/2018/03/21/135T1521633416_540c.jpg", "https://www.nekretnine.rs/data/images/2018/03/21/136T1521633423_540c.jpg", "https://www.nekretnine.rs/data/images/2018/03/21/137T1521633429_540c.jpg", "https://www.nekretnine.rs/data/images/2018/03/21/138T1521633435_540c.jpg", "https://www.nekretnine.rs/data/images/2018/03/21/139T1521633443_540c.jpg"], "link": "https://www.nekretnine.rs/stambeni-objekti/stanovi/1612262/top-lokacija/?cat=prodaja", "advertiser": {"name": " City Nekretnine Jevrejska 1221000 Novi Sad", "phones": ["0216622127", "0216613213", "0648222130", "0648222129"]}, "price": 61800, "title_hash": "813a0d8f8a77ea6c8b393b7242ffa63fdbbaccf6", "title": "TOP LOKACIJA !!!"}, {"metadata": ["ID=1612263", "Objavljen=21.03.2018.", "Oglas od=Zastupnik", "Uknji\u017eeno=Da", "Sobe=2"], "location": ["Liman 3"], "similar_adverts": [{"title": "Predivan svetao stan na Limanu", "link": "https://www.nekretnine.rs/stambeni-objekti/stanovi/1640978/predivan-svetao-stan-na-limanu/?cat=prodaja"}, {"title": "Idealna nekretnina na odli\u010dnoj lokaciji", "link": "https://www.nekretnine.rs/stambeni-objekti/stanovi/1612263/idealna-nekretnina-na-odlicnoj-lokaciji/?cat=prodaja"}], "processed": true, "timestamp": 1521590400, "text": "Prelep prostran dvosoban stan. Dosta svetlao, sa odli\u010dnim polozajem i prelepim pogledom. Odli\u010dnog rasporeda, gde se iz hodnika ulazi u svaku prostoriju. Zaista vredi pogledati!! (Kodeks i Dunav Nekretnine-\u0110or\u0111evi\u0107 Nekretnine DOO Novi Sad upisan u Reg. Pos. Broj 183) Tel: (+381 21) 66-11-000, 66-11-001, 064 649-88-66 i 064 649-88-65", "area": 61, "images": ["https://www.nekretnine.rs/data/images/2018/03/21/1512393360T1521633381_540c.jpg", "https://www.nekretnine.rs/data/images/2018/03/21/1512393579T1521633382_540c.jpg", "https://www.nekretnine.rs/data/images/2018/03/21/1512393990T1521633382_540c.jpg", "https://www.nekretnine.rs/data/images/2018/03/21/1512394038T1521633383_540c.jpg", "https://www.nekretnine.rs/data/images/2018/03/21/1512394383T1521633384_540c.jpg", "https://www.nekretnine.rs/data/images/2018/03/21/1512395678T1521633385_540c.jpg", "https://www.nekretnine.rs/data/images/2018/03/21/1512396228T1521633386_540c.jpg", "https://www.nekretnine.rs/data/images/2018/03/21/1512396792T1521633386_540c.jpg", "https://www.nekretnine.rs/data/images/2018/03/21/1512396879T1521633387_540c.jpg", "https://www.nekretnine.rs/data/images/2018/03/21/1512397032T1521633388_540c.jpg"], "link": "https://www.nekretnine.rs/stambeni-objekti/stanovi/1612263/idealna-nekretnina-na-odlicnoj-lokaciji/?cat=prodaja", "advertiser": {"name": " Vip nekretnine 21000 Novi Sad", "phones": ["0646498865", "0646498866", "0216611000", "0216611001"]}, "price": 61800, "title_hash": "d25acd79f414ff494c35bf912eb11f6a8c6da6e4", "title": "Idealna nekretnina na odli\u010dnoj lokaciji"}, {"metadata": ["ID=1612519", "Objavljen=21.03.2018.", "Oglas od=Zastupnik", "Uknji\u017eeno=Da", "Sobe=2", "Kupatila=1", "Na spratu=8", "Ukupno Spratova=9"], "location": ["Liman 3"], "similar_adverts": [{"title": "LIMAN - FANTASTI\u010cAN  069/2244173", "link": "https://www.oglasi.rs/oglasi/nekretnine/prodaja/stanova/03-416826/liman-fantastican-069-2244173"}, {"title": "Uknji\u017een, odr\u017eavan, uli\u010dno orijentisan.", "link": "https://www.nekretnine.rs/stambeni-objekti/stanovi/1612519/uknjizen-odrzavan-ulicno-orijentisan/?cat=prodaja"}], "processed": true, "timestamp": 1521590400, "text": "Klasi\u010dan dvosoban stan, iz hodnika u sve prostorije. Odr\u017eavan. \u0160ifra 407891 064/2266554.", "area": 65, "images": ["https://www.nekretnine.rs/data/images/2018/03/21/191741464868122image06T1521639533_540c.jpg", "https://www.nekretnine.rs/data/images/2018/03/21/191741464868122image05T1521639536_540c.jpg", "https://www.nekretnine.rs/data/images/2018/03/21/191741464868121image04T1521639540_540c.jpg", "https://www.nekretnine.rs/data/images/2018/03/21/191741464868121image02T1521639559_540c.jpg", "https://www.nekretnine.rs/data/images/2018/03/21/191741464868120image01T1521639563_540c.jpg", "https://www.nekretnine.rs/data/images/2018/03/21/407891T1521639566_540c.jpg"], "link": "https://www.nekretnine.rs/stambeni-objekti/stanovi/1612519/uknjizen-odrzavan-ulicno-orijentisan/?cat=prodaja", "advertiser": {"name": " Grad Nekretnine Bulevar Oslobo\u0111enja 9121000 Novi Sad", "phones": ["0216613357", "0216613357", "0648222131", "0648222132"]}, "price": 63860, "title_hash": "c545f6aa7fff9483cf93813e511df78689447306", "title": "Uknji\u017een, odr\u017eavan, uli\u010dno orijentisan."}, {"metadata": ["ID=1608643", "Objavljen=19.03.2018.", "Oglas od=Zastupnik", "Uknji\u017eeno=Da"], "location": ["Liman 4"], "area": 67, "processed": true, "timestamp": 1521417600, "images": ["https://www.nekretnine.rs/data/images/2018/03/19/220871477066605image11T1521466132_540c.jpg", "https://www.nekretnine.rs/data/images/2018/03/19/220871477066603image05T1521466137_540c.jpg", "https://www.nekretnine.rs/data/images/2018/03/19/220871477066604image10T1521466140_540c.jpg", "https://www.nekretnine.rs/data/images/2018/03/19/220871477066603image04T1521466145_540c.jpg", "https://www.nekretnine.rs/data/images/2018/03/19/220871477066602image02T1521466147_540c.jpg", "https://www.nekretnine.rs/data/images/2018/03/19/412502T1521466151_540c.jpg"], "text": "Prelep, konforan, kompletno renoviran stan, bez ikakvih ulaganja, sa prelepim pogledom na ceo grad i Fru\u0161ku Goru. Odli\u010dan za porodicu! TEL. 065/66-48-306.", "link": "https://www.nekretnine.rs/stambeni-objekti/stanovi/1608643/prelep-konforan-kompletno-renoviran-stan/?cat=prodaja", "advertiser": {"name": " Halo Nekretnine Futo\u0161ka 621000 Novi Sad", "phones": ["021452900", "021452800", "0648222181", "0648222182"]}, "price": 61800, "title_hash": "4aa1e3130adcb165f6250209539bfaf87e55eae3", "title": "Prelep, konforan, kompletno renoviran stan."}], "page": 4, "number_of_pages": 5, "count": 112, "page_count": 12}